{
  "id": "a2d9dc03-5ce8-48e0-84ea-64abb2a623f2",
  "name": "template",
  "values": [
    {
      "enabled": true,
      "key": "api_url",
      "value": "",
      "type": "text"
    },
    {
      "enabled": true,
      "key": "api_key",
      "value": "",
      "type": "text"
    },
    {
      "key": "username",
      "value": "",
      "description": "",
      "type": "text",
      "enabled": true
    },
    {
      "key": "password",
      "value": "",
      "description": "",
      "type": "text",
      "enabled": true
    }
  ],
  "_postman_variable_scope": "environment",
  "_postman_exported_at": "2018-04-16T07:21:28.924Z",
  "_postman_exported_using": "Postman/6.0.10"
}