{
  "screenPopConfig": {
    "default": {
      "ref": "customerNumber"
    },
    "rules": [
      {
        "callType": "Outbound",
        "search": false,
        "ref": [
          "Id"
        ]
      },
      {
        "callType": "Transfer",
        "search": false,
        "ref": "taskId"
      },
      {
        "callType": "Inbound",
        "search": false,
        "ref": [
          "Id"
        ]
      }
    ]
  },
  "map": {
    "transfer": {
      "ipSCAPE_queueTime__c": "timeInQueue",
      "campaignTitle__c": "campaignTitle"
    },
    "outbound": {
      "ipSCAPE_campaign__c": "campaignTitle"
    },
    "inbound": {
      "ipSCAPE_bookingId__c": "bookingId",
      "ipSCAPE_queueTime__c": "timeInQueue",
      "ipSCAPE_campaign__c": "campaignTitle",
      "ChannelName__c":"customText",
      "WorkflowParameter__c":"customData",
      "ClaimNumber__c":"ClaimNumber"
    }, 
    "default": {
      "callEndedDate__c": "callEndedDate",
      "callStartedDate__c": "callStartedDate",
      "customerPhoneNumber__c": "customerPhoneNumber",
      "activityId__c": "activityId",
      "activityOrigin__c": "'ipSCAPE'",
      "CallCenter__c": "platformPhoneNumber",
      "agentName__c": "agentFullName",
      "LeadId__c":"leadId",
      "transaction_result__c":"transaction_result",
      "agentInteractionId__c":"agentInteractionId",
      "customerId": "customerId__c"
    }
  },
  "settings": {
    "disablePaymentsBtn": "false",
    "defaultWrapCode": "14",
    "displayWrapCodes": "true",
    "checkRelatedObjectsOnWrap": true,
    "apex": {
      "getCapabilities": "IpscapeHelper::getCapabilities"
    }
  }
}