{
	"map": {
		"transfer": {
			"ipSCAPE_queueTime__c": "timeInQueue"
		},
		"inbound": {
			"ipSCAPE_queueTime__c": "timeInQueue"
		},
		"default": {
			"ipSCAPE_callEnd__c": "callEndedDate",
			"ipSCAPE_callStart__c": "callStartedDate",
			"ipSCAPE_campaign__c": "campaignTitle",
			"phone__c": "customerPhoneNumber",
			"interactionId__c": "agentInteractionId",
			"activityId__c": "activityId",
			"CallCenter__c": "platformPhoneNumber",
			"ipSCAPE_AgentName__c": "agentFullName",
			"hangupOrigin__c": "hangupOrigin"
		}
	},
	"settings": {
		"disablePaymentsBtn": "false",
		"defaultWrapCode": null,
		"displayWrapCodes": "true",
		"apex": {
			"getCapabilities": "IpscapeHelper::getCapabilities"
		}
	},
	"screenPopConfig": {
		"default": {
			"ref": "customerPhoneNumber"
		},
		"rules": [{
			"callType": "Outbound",
			"search": true,
			"ref": [
				"customerNumber"
			]
		}]
	}
}