{
  "map": {
    "transfer": {
      "ipSCAPE_queueTime__c": "timeInQueue",
      "ipSCAPE_campaign__c": "campaignTitle"
    },
    "outbound": {
      "ipSCAPE_campaign__c": "campaignTitle",
      "ipSCAPE_leadId__c": "leadId",
      "ipSCAPE_listId__c": "listId",
      "ipSCAPE_listName__c": "listName"
    },
    "inbound": {
      "ipSCAPE_bookingId__c": "option",
      "ipSCAPE_queueTime__c": "timeInQueue",
      "ipSCAPE_campaign__c": "campaignTitle"
    },
    "default": {
      "ipSCAPE_callEnd__c": "callEndedDate",
      "ipSCAPE_callStart__c": "callStartedDate",
      "phone__c": "customerPhoneNumber",
      "interactionId__c": "agentInteractionId",
      "activity__c": "activityId",
      "activityOrigin__c": "'ipSCAPE'",
      "CallCenter__c": "platformPhoneNumber",
      "agent__c": "agentFullName",
      "hangupOrigin__c": "hangupOrigin",
      "Call_Recording__c": "recording"
    }
  },
  "settings": {
    "disablePaymentsBtn": "false",
    "defaultWrapCode": null,
    "displayWrapCodes": "true",
    "checkRelatedObjectsOnWrap": true,
    "apex": {
      "getCapabilities": "IpscapeHelper::getCapabilities"
    }
  },
  "screenPopConfig": {
    "default": {
      "ref": "nationalCustomerPhoneNumber"
    },
    "rules": [
      {
        "callType": "Outbound",
        "search": true,
        "ref": ["SFLeadId"]
      }
    ]
  }
}
